IBM HR Analytics · Portfolio website for Mengting(Julia) Zhu
…
The overall distribution is quite similar between gender groups. The average monthly payment of female employees is 6687, which is 300 more than that of male employees. What’s more, the variance of monthly income in male group are higher than that in female group.

Monthly Income Distribution in Different Job Roles

hr_cleaned%>%
  group_by(job_role)%>%
  arrange(monthly_income)

## # A tibble: 1,470 x 19
## # Groups:   job_role [9]
##      age attrition daily_rate department distance_from_h~ education gender
##    <dbl> <chr>          <dbl> <chr>                 <dbl> <chr>     <chr> 
##  1    20 Yes             1362 Research ~               10 Below Co~ Male  
##  2    18 No               287 Research ~                5 College   Male  
##  3    28 No              1144 Sales                    10 Below Co~ Male  
##  4    30 Yes              945 Sales                     9 Bachelor  Male  
##  5    29 Yes              746 Sales                    24 Bachelor  Male  
##  6    19 Yes              303 Research ~                2 Bachelor  Male  
##  7    25 Yes              599 Sales                    24 Below Co~ Male  
##  8    31 No              1276 Research ~                2 Below Co~ Female
##  9    18 No               812 Sales                    10 Bachelor  Female
## 10    23 No               373 Research ~                1 College   Male  
## # ... with 1,460 more rows, and 12 more variables: job_role <chr>,
## #   environment_satisfaction <chr>, job_satisfaction <chr>,
## #   marital_status <chr>, monthly_income <dbl>, num_companies_worked <dbl>,
## #   percent_salary_hike <dbl>, performance_rating <chr>,
## #   total_working_years <dbl>, work_life_balance <chr>, years_at_company <dbl>,
## #   years_since_last_promotion <dbl>
…
